﻿{
    "Evaluate": "評価する",
    "Audit": "監査",
    "On": "に",
    "At": "で",
    "Name": "名前",
    "Value": "値",
    "SubAssetID": "サブアセットID",
    "SubAssetType": "サブ資産タイプ",
    "SubAssetConditionRating": "サブ資産条件の評価",
    "SubAssetAreaLocated": "配置された補助資産エリア",
    "SubAssetMake": "サブアセットメイク",
    "SubAssetModel": "サブ資産モデル",
    "SubAssetSerial": "サブアセットシリアル"
}